Creates a table or plot row template for a set of models — model_labels • modelfitter
…
    It is expect that use cases such as multiple univariate models + a few
fully adjusted models are passed to this function and the result is
to be displayed in a single plot or figure.

    Examples

diamonds3 = ggplot2::diamonds %>% dplyr::mutate(
  is_coloured = color <= "F",
  cut = factor(cut,ordered=FALSE),
  price_cat = tableone::cut_integer(price, c(500,1000,2000,4000))
) %>% dplyr::select(-color)

model = stats::glm(is_coloured ~ cut + carat + clarity * price, diamonds3, family="binomial")
model_labels(model, toupper, tolower)
#> # A tibble: 21 × 9
#>    group.order model.order subgroup.order characteristic subgroup    predictor
#>          <int>       <dbl>          <dbl> <chr>          <chr>       <chr>    
#>  1           1           1              1 CUT            "fair"      cut      
#>  2           1           1              2 CUT            "good"      cut      
#>  3           1           1              3 CUT            "very good" cut      
#>  4           1           1              4 CUT            "premium"   cut      
#>  5           1           1              5 CUT            "ideal"     cut      
#>  6           2           1              1 CARAT          ""          carat    
#>  7           3           1              1 CLARITY        "linear"    clarity  
#>  8           3           1              2 CLARITY        "quadratic" clarity  
#>  9           3           1              3 CLARITY        "cubic"     clarity  
#> 10           3           1              4 CLARITY        "4th power" clarity  
#> # ℹ 11 more rows
#> # ℹ 3 more variables: term <chr>, reference <lgl>, group.type <chr>
…
