…
## Examples

``` r
diamonds3 = ggplot2::diamonds %>% dplyr::mutate(
  is_coloured = color <= "F",
  cut = factor(cut,ordered=FALSE),
  price_cat = cut(price, 
      breaks = c(0,500,1000,2000,4000,Inf),
      labels = c("<500","500-999","1000-1999","2000-3999","4000+"),
      ordered_result = TRUE)
) %>% dplyr::select(-color)

model = stats::glm(is_coloured ~ cut + carat + clarity * price, diamonds3, family="binomial")
model_labels(model, toupper, tolower)
#> # A tibble: 21 × 9
#>    group.order model.order subgroup.order characteristic subgroup    predictor
#>          <int>       <dbl>          <dbl> <chr>          <chr>       <chr>    
#>  1           1           1              1 CUT            "fair"      cut      
#>  2           1           1              2 CUT            "good"      cut      
#>  3           1           1              3 CUT            "very good" cut      
#>  4           1           1              4 CUT            "premium"   cut      
#>  5           1           1              5 CUT            "ideal"     cut      
#>  6           2           1              1 CARAT          ""          carat    
#>  7           3           1              1 CLARITY        "linear"    clarity  
#>  8           3           1              2 CLARITY        "quadratic" clarity  
#>  9           3           1              3 CLARITY        "cubic"     clarity  
#> 10           3           1              4 CLARITY        "4th power" clarity  
#> # ℹ 11 more rows
#> # ℹ 3 more variables: term <chr>, reference <lgl>, group.type <chr>
…
model3 = stats::glm(is_coloured ~ carat + cut * clarity +  price, diamonds3, family="binomial")
model_labels(model3, toupper, tolower)
#> # A tibble: 49 × 9
#>    group.order model.order subgroup.order characteristic subgroup    predictor
#>          <int>       <dbl>          <dbl> <chr>          <chr>       <chr>    
#>  1           1           1              1 CARAT          ""          carat    
#>  2           2           1              1 CUT            "fair"      cut      
#>  3           2           1              2 CUT            "good"      cut      
#>  4           2           1              3 CUT            "very good" cut      
#>  5           2           1              4 CUT            "premium"   cut      
#>  6           2           1              5 CUT            "ideal"     cut      
#>  7           3           1              1 CLARITY        "linear"    clarity  
#>  8           3           1              2 CLARITY        "quadratic" clarity  
#>  9           3           1              3 CLARITY        "cubic"     clarity  
#> 10           3           1              4 CLARITY        "4th power" clarity  
#> # ℹ 39 more rows
#> # ℹ 3 more variables: term <chr>, reference <lgl>, group.type <chr>
…
